{"patientDetails": [
  "Ada Abdallah","Ada wait Abdallah","Allison Pollan","Angella Bassaragh","Armand Eccles","Ashish Taneja","Ashish Taneja","Ashish Taneja","Ashish Taneja","Ashish Taneja"]
,"searchString1":"     "
}