{
  "columns": [
    "patientDetails",
    "phoneEmail",
    "visitedDate",
    "actionsOverview",
    "actionsRadiology",
    "actionsLabs",
    "Id",
    "DOB",
    "Gender"
  ],
  "tabTitle":"Recently Viewed Patients",
  "searchPatients":"Search Patients",
  "name":"Name",
  "patId":"Patient ID",
  "Email":"Email",
  "Phone":"Phone",
  "Name":"Name",
  "gender":"Gender",
  "Age":"  Age",
  "DOB":"Date of Birth"

}