{
    "OrderName":"head",
    "orderNamePatientName":
    [
        "Mahendra Singh Dhoni",
        "Mahendra Singh Dhoni"
    ],
    "orderNamePatientId":
    [
        "MPHRX640752",
        "MPHRX640752"
    ],
    "orderNameDobs":
    [
        "01 Sep 1954 (62y)",
        "01 Sep 1954 (62y)"
    ],
    "orderNameReportType":
    [
        "Radiology",
        "Radiology"
    ],

    "orderNameReportStatus":[
        "Unavailable",
        "Unavailable"
    ],

    "orderNameReportDescription":[
        "head^HS Brain",
        "head^HS Brain"
    ],
    "orderNameReportDate":[
        "08 Mar 2016 00:18",
        "08 Mar 2016 00:18"
    ],
    "genderImageIconOrderName":
    [
        true,
        true
    ]
}