{
    "IdText":"ID",
    "BornText":"Born",
    "firstPageCount":10,
    "ReportLabelIcon":[true,true,true,true,true,true,true,true,true,true],
    "patientNames": [
        "Carol E Marshall",
        "Cynthia Watts",
        "Cynthia Watts",
        "Magdalena Keeton",
        "Bettie Grant",
        "Patricia Trachtenberg",
        "Diane Phelps",
        "Vickie Johnson-Williams",
        "Ashley M Upton",
        "Kimberley Drinkwater"
    ],
    "Patientdobs": [
        "31 Aug 1958 (58y)",
        "06 Jan 1953 (63y)",
        "06 Jan 1953 (63y)",
        "12 May 1976 (40y)",
        "23 Dec 1950 (65y)",
        "27 Nov 1975 (40y)",
        "18 Jun 1952 (64y)",
        "11 Apr 1954 (62y)",
        "30 Oct 1985 (30y)",
        "26 Apr 1966 (50y)"
    ],
    "PatientIds": [
        "0301533605",
        "0304026215",
        "0304026215",
        "0303984804",
        "0302805723",
        "0303241675",
        "0300919838",
        "0300954573",
        "0304017970",
        "0303870857"
    ],

    "reportType": [
        "Radiology",
        "Radiology",
        "Radiology",
        "Radiology",
        "Radiology",
        "Radiology",
        "Radiology",
        "Radiology",
        "Radiology",
        "Radiology"
    ],

    "reportStatus":[
        "Final",
        "A",
        "A",
        "Final",
        "Final",
        "Final",
        "Final",
        "Final",
        "Final",
        "Final"
    ],
    "reportDescription":
    [
        "Unavailable",
        "Unavailable",
        "Unavailable",
        "Unavailable",
        "Unavailable",
        "Unavailable",
        "Unavailable",
        "Unavailable",
        "Unavailable",
        "Unavailable"
    ],
    "reportDate":
    [
        "29 Apr 2016 00:28",
        "06 Apr 2016 02:12",
        "06 Apr 2016 02:11",
        "01 Apr 2016 22:17",
        "01 Apr 2016 22:17",
        "01 Apr 2016 02:12",
        "01 Apr 2016 00:02",
        "31 Mar 2016 01:34",
        "30 Mar 2016 19:50",
        "19 Mar 2016 01:56"
    ],
    "reportLocation":[
        "BCM",
        "BCM",
        "BCM",
        "BCM",
        "BCM",
        "BCM",
        "BCM",
        "BCM",
        "BCM",
        "BCM"
    ]

}