{
    "IdText":"ID",
    "BornText":"Born",
    "dobSearchData":
    [
        "Allison Pollan",
        "0303865301",
        "28 Jul 1975 (41y)",
        "Unavailable",
        "Radiology",
        "Final",
        "Unavailable",
        "12 Mar 2016 00:33",
        "BCM",
        "1"
    ]
}